input_of_FIFO_test.vcd
$date
	Tue Oct 25 12:27:20 2022
$end
$version
	Icarus Verilog
$end
$timescale
	1s
$end
$scope module input_of_FIFO_test $end
$var wire 32 ! out4 [31:0] $end
$var wire 32 " out3 [31:0] $end
$var wire 32 # out2 [31:0] $end
$var wire 32 $ out1 [31:0] $end
$var wire 32 % out0 [31:0] $end
$var wire 1 & com $end
$var reg 8 ' base_address [7:0] $end
$var reg 1 ( clk $end
$var reg 1 ) init $end
$scope module DUT $end
$var wire 8 * base_address [7:0] $end
$var wire 1 ( clk $end
$var wire 1 & com $end
$var wire 1 ) init $end
$var wire 32 + out4 [31:0] $end
$var wire 32 , out3 [31:0] $end
$var wire 32 - out2 [31:0] $end
$var wire 32 . out1 [31:0] $end
$var wire 32 / out0 [31:0] $end
$var wire 1 0 de_mux_clr $end
$var wire 1 1 complete $end
$var wire 8 2 base_address_ctrl [7:0] $end
$var wire 1 3 LM_clr $end
$scope module CB $end
$var wire 1 ( clk $end
$var wire 32 4 out4 [31:0] $end
$var wire 32 5 out3 [31:0] $end
$var wire 32 6 out2 [31:0] $end
$var wire 32 7 out1 [31:0] $end
$var wire 32 8 out0 [31:0] $end
$var wire 32 9 mem_data [31:0] $end
$var wire 8 : mem_address [7:0] $end
$var wire 3 ; dmux_sel [2:0] $end
$var wire 1 0 de_mux_clr $end
$var wire 1 1 com $end
$var wire 8 < base_address [7:0] $end
$var wire 8 = LM_data [7:0] $end
$var wire 6 > LM_counter_out [5:0] $end
$var wire 1 3 LM_clr $end
$scope module DM $end
$var wire 3 ? sel [2:0] $end
$var wire 32 @ in [31:0] $end
$var reg 32 A out0 [31:0] $end
$var reg 32 B out1 [31:0] $end
$var reg 32 C out2 [31:0] $end
$var reg 32 D out3 [31:0] $end
$var reg 32 E out4 [31:0] $end
$upscope $end
$scope module DMC $end
$var wire 1 ( clk $end
$var wire 3 F out [2:0] $end
$var wire 1 0 clr $end
$var reg 3 G counter [2:0] $end
$upscope $end
$scope module LM $end
$var wire 1 ( clk $end
$var wire 6 H in [5:0] $end
$var reg 8 I out [7:0] $end
$upscope $end
$scope module LMC $end
$var wire 1 ( clk $end
$var wire 6 J out [5:0] $end
$var wire 1 3 clr $end
$var reg 1 1 com $end
$var reg 6 K counter [5:0] $end
$upscope $end
$scope module LtoI $end
$var wire 8 L location_memory_out [7:0] $end
$var wire 8 M base_address [7:0] $end
$var reg 8 N memory_in [7:0] $end
$upscope $end
$scope module MEM $end
$var wire 1 ( clk $end
$var wire 8 O in [7:0] $end
$var reg 32 P out [31:0] $end
$upscope $end
$upscope $end
$scope module CN $end
$var wire 8 Q base_address_in [7:0] $end
$var wire 1 ( clk $end
$var wire 1 1 com $end
$var wire 1 ) init $end
$var reg 1 3 LM_clr $end
$var reg 8 R base_address [7:0] $end
$var reg 1 0 de_mux_clr $end
$var reg 2 S state [1:0] $end
$upscope $end
$upscope $end
$upscope $end
$enddefinitions $end
#0
$dumpvars
b0 S
b0 R
b0 Q
bx P
bx O
bx N
b0 M
bx L
bx K
bx J
bx I
bx H
bx G
bx F
bx E
bx D
bx C
bx B
bx A
bx @
bx ?
bx >
bx =
b0 <
bx ;
bx :
bx 9
bx 8
bx 7
bx 6
bx 5
bx 4
13
b0 2
x1
10
bx /
bx .
bx -
bx ,
bx +
b0 *
0)
0(
b0 '
x&
bx %
bx $
bx #
bx "
bx !
$end
#5
b0 >
b0 H
b0 J
b0 K
b0 ;
b0 ?
b0 F
b0 G
1(
#10
0(
1)
#15
03
b100 :
b100 N
b100 O
b1 S
b100 =
b100 I
b100 L
1(
#20
0(
#25
b10 %
b10 /
b10 8
b10 A
0&
01
b1 >
b1 H
b1 J
b1 K
b10 9
b10 @
b10 P
b10 S
1(
#30
0(
#35
00
b11111111 :
b11111111 N
b11111111 O
b11 S
b11111111 =
b11111111 I
b11111111 L
b10 >
b10 H
b10 J
b10 K
1(
#40
0(
#45
b0 $
b0 .
b0 7
b0 B
b11 >
b11 H
b11 J
b11 K
b0 9
b0 @
b0 P
b1 ;
b1 ?
b1 F
b1 G
1(
#50
0(
#55
b0 #
b0 -
b0 6
b0 C
b10 ;
b10 ?
b10 F
b10 G
b100 >
b100 H
b100 J
b100 K
1(
#60
0(
#65
b0 "
b0 ,
b0 5
b0 D
b101 >
b101 H
b101 J
b101 K
b11 ;
b11 ?
b11 F
b11 G
1(
#70
0(
#75
b0 !
b0 +
b0 4
b0 E
b11 :
b11 N
b11 O
b100 ;
b100 ?
b100 F
b100 G
b11 =
b11 I
b11 L
b110 >
b110 H
b110 J
b110 K
1(
#80
0(
#85
b1001 :
b1001 N
b1001 O
b110 %
b110 /
b110 8
b110 A
b111 >
b111 H
b111 J
b111 K
b10100 =
b10100 I
b10100 L
b110 9
b110 @
b110 P
b0 ;
b0 ?
b0 F
b0 G
1(
#90
0(
#95
b101 $
b101 .
b101 7
b101 B
b11111111 :
b11111111 N
b11111111 O
b1 ;
b1 ?
b1 F
b1 G
b101 9
b101 @
b101 P
b11111111 =
b11111111 I
b11111111 L
b1000 >
b1000 H
b1000 J
b1000 K
1(
#100
0(
#105
b1001 >
b1001 H
b1001 J
b1001 K
b0 9
b0 @
b0 P
b10 ;
b10 ?
b10 F
b10 G
1(
#110
0(
#115
b11 ;
b11 ?
b11 F
b11 G
b1010 >
b1010 H
b1010 J
b1010 K
1(
#120
0(
#125
b10 :
b10 N
b10 O
b1011 >
b1011 H
b1011 J
b1011 K
b10 =
b10 I
b10 L
b100 ;
b100 ?
b100 F
b100 G
1(
#130
0(
#135
b100 %
b100 /
b100 8
b100 A
b1000 :
b1000 N
b1000 O
b0 ;
b0 ?
b0 F
b0 G
b100 9
b100 @
b100 P
b10011 =
b10011 I
b10011 L
b1100 >
b1100 H
b1100 J
b1100 K
1(
#140
0(
#145
b1110 :
b1110 N
b1110 O
b1 $
b1 .
b1 7
b1 B
b1101 >
b1101 H
b1101 J
b1101 K
b100100 =
b100100 I
b100100 L
b1 9
b1 @
b1 P
b1 ;
b1 ?
b1 F
b1 G
1(
#150
0(
#155
b100 #
b100 -
b100 6
b100 C
b11111111 :
b11111111 N
b11111111 O
b10 ;
b10 ?
b10 F
b10 G
b100 9
b100 @
b100 P
b11111111 =
b11111111 I
b11111111 L
b1110 >
b1110 H
b1110 J
b1110 K
1(
#160
0(
#165
b1111 >
b1111 H
b1111 J
b1111 K
b0 9
b0 @
b0 P
b11 ;
b11 ?
b11 F
b11 G
1(
#170
0(
#175
b1 :
b1 N
b1 O
b100 ;
b100 ?
b100 F
b100 G
b1 =
b1 I
b1 L
b10000 >
b10000 H
b10000 J
b10000 K
1(
#180
0(
#185
b111 :
b111 N
b111 O
b0 %
b0 /
b0 8
b0 A
b10001 >
b10001 H
b10001 J
b10001 K
b10010 =
b10010 I
b10010 L
b0 ;
b0 ?
b0 F
b0 G
1(
#190
0(
#195
b1001 $
b1001 .
b1001 7
b1001 B
b1101 :
b1101 N
b1101 O
b1 ;
b1 ?
b1 F
b1 G
b1001 9
b1001 @
b1001 P
b100011 =
b100011 I
b100011 L
b10010 >
b10010 H
b10010 J
b10010 K
1(
#200
0(
#205
b10011 :
b10011 N
b10011 O
b1001 #
b1001 -
b1001 6
b1001 C
b10011 >
b10011 H
b10011 J
b10011 K
b110100 =
b110100 I
b110100 L
b10 ;
b10 ?
b10 F
b10 G
1(
#210
0(
#215
b100 "
b100 ,
b100 5
b100 D
b11111111 :
b11111111 N
b11111111 O
b11 ;
b11 ?
b11 F
b11 G
b100 9
b100 @
b100 P
b11111111 =
b11111111 I
b11111111 L
b10100 >
b10100 H
b10100 J
b10100 K
1(
#220
0(
#225
b0 :
b0 N
b0 O
b10101 >
b10101 H
b10101 J
b10101 K
b0 =
b0 I
b0 L
b0 9
b0 @
b0 P
b100 ;
b100 ?
b100 F
b100 G
1(
#230
0(
#235
b11 %
b11 /
b11 8
b11 A
b110 :
b110 N
b110 O
b0 ;
b0 ?
b0 F
b0 G
b11 9
b11 @
b11 P
b10001 =
b10001 I
b10001 L
b10110 >
b10110 H
b10110 J
b10110 K
1(
#240
0(
#245
b1100 :
b1100 N
b1100 O
b10111 >
b10111 H
b10111 J
b10111 K
b100010 =
b100010 I
b100010 L
b1001 9
b1001 @
b1001 P
b1 ;
b1 ?
b1 F
b1 G
1(
#250
0(
#255
b110 #
b110 -
b110 6
b110 C
b10010 :
b10010 N
b10010 O
b10 ;
b10 ?
b10 F
b10 G
b110 9
b110 @
b110 P
b110011 =
b110011 I
b110011 L
b11000 >
b11000 H
b11000 J
b11000 K
1(
#260
0(
#265
b11000 :
b11000 N
b11000 O
b110 "
b110 ,
b110 5
b110 D
b11001 >
b11001 H
b11001 J
b11001 K
b1000100 =
b1000100 I
b1000100 L
b11 ;
b11 ?
b11 F
b11 G
1(
#270
0(
#275
b11 !
b11 +
b11 4
b11 E
b11111111 :
b11111111 N
b11111111 O
b100 ;
b100 ?
b100 F
b100 G
b11 9
b11 @
b11 P
b11111111 =
b11111111 I
b11111111 L
b11010 >
b11010 H
b11010 J
b11010 K
1(
#280
0(
#285
b101 :
b101 N
b101 O
b0 %
b0 /
b0 8
b0 A
b11011 >
b11011 H
b11011 J
b11011 K
b10000 =
b10000 I
b10000 L
b0 9
b0 @
b0 P
b0 ;
b0 ?
b0 F
b0 G
1(
#290
0(
#295
b11 $
b11 .
b11 7
b11 B
b1011 :
b1011 N
b1011 O
b1 ;
b1 ?
b1 F
b1 G
b11 9
b11 @
b11 P
b100001 =
b100001 I
b100001 L
b11100 >
b11100 H
b11100 J
b11100 K
1(
#300
0(
#305
b10001 :
b10001 N
b10001 O
b0 #
b0 -
b0 6
b0 C
b11101 >
b11101 H
b11101 J
b11101 K
b110010 =
b110010 I
b110010 L
b0 9
b0 @
b0 P
b10 ;
b10 ?
b10 F
b10 G
1(
#310
0(
#315
b101 "
b101 ,
b101 5
b101 D
b10111 :
b10111 N
b10111 O
b11 ;
b11 ?
b11 F
b11 G
b101 9
b101 @
b101 P
b1000011 =
b1000011 I
b1000011 L
b11110 >
b11110 H
b11110 J
b11110 K
1(
#320
0(
#325
b11111111 :
b11111111 N
b11111111 O
b100 !
b100 +
b100 4
b100 E
b11111 >
b11111 H
b11111 J
b11111 K
b11111111 =
b11111111 I
b11111111 L
b100 9
b100 @
b100 P
b100 ;
b100 ?
b100 F
b100 G
1(
#330
0(
#335
b0 ;
b0 ?
b0 F
b0 G
b0 9
b0 @
b0 P
b100000 >
b100000 H
b100000 J
b100000 K
1(
#340
0(
#345
b1010 :
b1010 N
b1010 O
b0 $
b0 .
b0 7
b0 B
b100001 >
b100001 H
b100001 J
b100001 K
b100000 =
b100000 I
b100000 L
b1 ;
b1 ?
b1 F
b1 G
1(
#350
0(
#355
b111 #
b111 -
b111 6
b111 C
b10000 :
b10000 N
b10000 O
b10 ;
b10 ?
b10 F
b10 G
b111 9
b111 @
b111 P
b110001 =
b110001 I
b110001 L
b100010 >
b100010 H
b100010 J
b100010 K
1(
#360
0(
#365
b10110 :
b10110 N
b10110 O
b1001 "
b1001 ,
b1001 5
b1001 D
b100011 >
b100011 H
b100011 J
b100011 K
b1000010 =
b1000010 I
b1000010 L
b1001 9
b1001 @
b1001 P
b11 ;
b11 ?
b11 F
b11 G
1(
#370
0(
#375
b110 !
b110 +
b110 4
b110 E
b11111111 :
b11111111 N
b11111111 O
b100 ;
b100 ?
b100 F
b100 G
b110 9
b110 @
b110 P
b11111111 =
b11111111 I
b11111111 L
b100100 >
b100100 H
b100100 J
b100100 K
1(
#380
0(
#385
b100101 >
b100101 H
b100101 J
b100101 K
b0 9
b0 @
b0 P
b0 ;
b0 ?
b0 F
b0 G
1(
#390
0(
#395
b1 ;
b1 ?
b1 F
b1 G
b100110 >
b100110 H
b100110 J
b100110 K
1(
#400
0(
#405
b1111 :
b1111 N
b1111 O
b0 #
b0 -
b0 6
b0 C
b100111 >
b100111 H
b100111 J
b100111 K
b110000 =
b110000 I
b110000 L
b10 ;
b10 ?
b10 F
b10 G
1(
#410
0(
#415
b10101 :
b10101 N
b10101 O
b11 ;
b11 ?
b11 F
b11 G
b1001 9
b1001 @
b1001 P
b1000001 =
b1000001 I
b1000001 L
b101000 >
b101000 H
b101000 J
b101000 K
1(
#420
0(
#425
b11111111 :
b11111111 N
b11111111 O
b10 !
b10 +
b10 4
b10 E
b101001 >
b101001 H
b101001 J
b101001 K
b11111111 =
b11111111 I
b11111111 L
b10 9
b10 @
b10 P
b100 ;
b100 ?
b100 F
b100 G
1(
#430
0(
#435
b0 ;
b0 ?
b0 F
b0 G
b0 9
b0 @
b0 P
b101010 >
b101010 H
b101010 J
b101010 K
1(
#440
0(
#445
b101011 >
b101011 H
b101011 J
b101011 K
b1 ;
b1 ?
b1 F
b1 G
1(
#450
0(
#455
b10 ;
b10 ?
b10 F
b10 G
b101100 >
b101100 H
b101100 J
b101100 K
1(
#460
0(
#465
b10100 :
b10100 N
b10100 O
b0 "
b0 ,
b0 5
b0 D
1&
11
b0 >
b0 H
b0 J
b0 K
b1000000 =
b1000000 I
b1000000 L
b11 ;
b11 ?
b11 F
b11 G
1(
#470
0(
#475
10
13
b110 !
b110 +
b110 4
b110 E
b100 :
b100 N
b100 O
b0 S
b100 ;
b100 ?
b100 F
b100 G
b110 9
b110 @
b110 P
b100 =
b100 I
b100 L
0&
01
b1 >
b1 H
b1 J
b1 K
1(
#480
0(
#485
b11111111 :
b11111111 N
b11111111 O
b10 %
b10 /
b10 8
b10 A
03
b0 >
b0 H
b0 J
b0 K
b11111111 =
b11111111 I
b11111111 L
b10 9
b10 @
b10 P
b0 ;
b0 ?
b0 F
b0 G
b1 S
1(
#490
0(
#495
b0 %
b0 /
b0 8
b0 A
b100 :
b100 N
b100 O
b10 S
b0 9
b0 @
b0 P
b100 =
b100 I
b100 L
b1 >
b1 H
b1 J
b1 K
1(
#500
0(
#505
b11111111 :
b11111111 N
b11111111 O
b10 %
b10 /
b10 8
b10 A
00
b10 >
b10 H
b10 J
b10 K
b11111111 =
b11111111 I
b11111111 L
b10 9
b10 @
b10 P
b11 S
1(
