SA_MEM_test.vcd
$date
	Sun Oct 30 11:14:39 2022
$end
$version
	Icarus Verilog
$end
$timescale
	1s
$end
$scope module SA_MEM_test $end
$var wire 1 ! com $end
$var reg 8 " base_address [7:0] $end
$var reg 1 # clk $end
$var reg 32 $ in0 [31:0] $end
$var reg 32 % in1 [31:0] $end
$var reg 32 & in2 [31:0] $end
$var reg 32 ' in3 [31:0] $end
$var reg 32 ( in4 [31:0] $end
$var reg 1 ) init $end
$var integer 32 * i [31:0] $end
$scope module DUT $end
$var wire 8 + base_address [7:0] $end
$var wire 1 # clk $end
$var wire 1 ! com $end
$var wire 32 , in0 [31:0] $end
$var wire 32 - in1 [31:0] $end
$var wire 32 . in2 [31:0] $end
$var wire 32 / in3 [31:0] $end
$var wire 32 0 in4 [31:0] $end
$var wire 1 ) init $end
$var wire 1 1 mux_clr $end
$var wire 1 2 complete $end
$var wire 8 3 base_address_ctrl [7:0] $end
$var wire 1 4 LM_clr $end
$scope module CB $end
$var wire 1 # clk $end
$var wire 32 5 in0 [31:0] $end
$var wire 32 6 in1 [31:0] $end
$var wire 32 7 in2 [31:0] $end
$var wire 32 8 in3 [31:0] $end
$var wire 32 9 in4 [31:0] $end
$var wire 3 : mux_sel [2:0] $end
$var wire 1 1 mux_clr $end
$var wire 32 ; mem_data [31:0] $end
$var wire 8 < mem_address [7:0] $end
$var wire 1 2 com $end
$var wire 8 = base_address [7:0] $end
$var wire 8 > LM_data [7:0] $end
$var wire 6 ? LM_counter_out [5:0] $end
$var wire 1 4 LM_clr $end
$scope module DM $end
$var wire 32 @ in0 [31:0] $end
$var wire 32 A in1 [31:0] $end
$var wire 32 B in2 [31:0] $end
$var wire 32 C in3 [31:0] $end
$var wire 32 D in4 [31:0] $end
$var wire 3 E sel [2:0] $end
$var reg 32 F out [31:0] $end
$upscope $end
$scope module DMC $end
$var wire 1 # clk $end
$var wire 3 G out [2:0] $end
$var wire 1 1 clr $end
$var reg 3 H counter [2:0] $end
$upscope $end
$scope module LM $end
$var wire 1 # clk $end
$var wire 6 I in [5:0] $end
$var reg 8 J out [7:0] $end
$upscope $end
$scope module LMC $end
$var wire 1 # clk $end
$var wire 6 K out [5:0] $end
$var wire 1 4 clr $end
$var reg 1 2 com $end
$var reg 6 L counter [5:0] $end
$upscope $end
$scope module LtoI $end
$var wire 8 M location_memory_out [7:0] $end
$var wire 8 N base_address [7:0] $end
$var reg 8 O memory_in [7:0] $end
$upscope $end
$scope module MEM $end
$var wire 1 # clk $end
$var wire 32 P data_in [31:0] $end
$var wire 8 Q index [7:0] $end
$upscope $end
$upscope $end
$scope module CN $end
$var wire 8 R base_address_in [7:0] $end
$var wire 1 # clk $end
$var wire 1 2 com $end
$var wire 1 ) init $end
$var reg 1 4 LM_clr $end
$var reg 8 S base_address [7:0] $end
$var reg 1 1 mux_clr $end
$var reg 2 T state [1:0] $end
$upscope $end
$upscope $end
$upscope $end
$enddefinitions $end
#0
$dumpvars
b0 T
b0 S
b0 R
bx Q
bx P
bx O
b0 N
bx M
bx L
bx K
bx J
bx I
bx H
bx G
bx F
bx E
bx D
bx C
bx B
bx A
bx @
bx ?
bx >
b0 =
bx <
bx ;
bx :
bx 9
bx 8
bx 7
bx 6
bx 5
14
b0 3
x2
11
bx 0
bx /
bx .
bx -
bx ,
b0 +
bx *
0)
bx (
bx '
bx &
bx %
bx $
0#
b0 "
x!
$end
#5
0!
02
b0 ?
b0 I
b0 K
b0 L
b0 :
b0 E
b0 G
b0 H
1#
#10
0#
1)
#15
04
b10100 <
b10100 O
b10100 Q
b1 T
b1000000 >
b1000000 J
b1000000 M
1#
#20
b1100000 ;
b1100000 F
b1100000 P
0#
b101 (
b101 0
b101 9
b101 D
b100111 '
b100111 /
b100111 8
b100111 C
b1001 &
b1001 .
b1001 7
b1001 B
b110001 %
b110001 -
b110001 6
b110001 A
b1100000 $
b1100000 ,
b1100000 5
b1100000 @
#25
01
b1 ?
b1 I
b1 K
b1 L
b10 T
1#
#30
0#
#35
b110001 ;
b110001 F
b110001 P
b10101 <
b10101 O
b10101 Q
b1 :
b1 E
b1 G
b1 H
b1000001 >
b1000001 J
b1000001 M
b10 ?
b10 I
b10 K
b10 L
1#
#40
0#
#45
b10110 <
b10110 O
b10110 Q
b1001 ;
b1001 F
b1001 P
b11 ?
b11 I
b11 K
b11 L
b1000010 >
b1000010 J
b1000010 M
b10 :
b10 E
b10 G
b10 H
1#
#50
0#
#55
b100111 ;
b100111 F
b100111 P
b10111 <
b10111 O
b10111 Q
b11 :
b11 E
b11 G
b11 H
b1000011 >
b1000011 J
b1000011 M
b100 ?
b100 I
b100 K
b100 L
1#
#60
0#
#65
b11000 <
b11000 O
b11000 Q
b101 ;
b101 F
b101 P
b101 ?
b101 I
b101 K
b101 L
b1000100 >
b1000100 J
b1000100 M
b100 :
b100 E
b100 G
b100 H
1#
#70
0#
#75
b1100000 ;
b1100000 F
b1100000 P
b1111 <
b1111 O
b1111 Q
b0 :
b0 E
b0 G
b0 H
b110000 >
b110000 J
b110000 M
b110 ?
b110 I
b110 K
b110 L
1#
#80
0#
#85
b10000 <
b10000 O
b10000 Q
b110001 ;
b110001 F
b110001 P
b111 ?
b111 I
b111 K
b111 L
b110001 >
b110001 J
b110001 M
b1 :
b1 E
b1 G
b1 H
1#
#90
0#
#95
b1001 ;
b1001 F
b1001 P
b10001 <
b10001 O
b10001 Q
b10 :
b10 E
b10 G
b10 H
b110010 >
b110010 J
b110010 M
b1000 ?
b1000 I
b1000 K
b1000 L
1#
#100
0#
#105
b10010 <
b10010 O
b10010 Q
b100111 ;
b100111 F
b100111 P
b1001 ?
b1001 I
b1001 K
b1001 L
b110011 >
b110011 J
b110011 M
b11 :
b11 E
b11 G
b11 H
1#
#110
0#
#115
b101 ;
b101 F
b101 P
b10011 <
b10011 O
b10011 Q
b100 :
b100 E
b100 G
b100 H
b110100 >
b110100 J
b110100 M
b1010 ?
b1010 I
b1010 K
b1010 L
1#
#120
0#
#125
b1010 <
b1010 O
b1010 Q
b1100000 ;
b1100000 F
b1100000 P
b1011 ?
b1011 I
b1011 K
b1011 L
b100000 >
b100000 J
b100000 M
b0 :
b0 E
b0 G
b0 H
1#
#130
0#
#135
b110001 ;
b110001 F
b110001 P
b1011 <
b1011 O
b1011 Q
b1 :
b1 E
b1 G
b1 H
b100001 >
b100001 J
b100001 M
b1100 ?
b1100 I
b1100 K
b1100 L
1#
#140
0#
#145
b1100 <
b1100 O
b1100 Q
b1001 ;
b1001 F
b1001 P
b1101 ?
b1101 I
b1101 K
b1101 L
b100010 >
b100010 J
b100010 M
b10 :
b10 E
b10 G
b10 H
1#
#150
0#
#155
b100111 ;
b100111 F
b100111 P
b1101 <
b1101 O
b1101 Q
b11 :
b11 E
b11 G
b11 H
b100011 >
b100011 J
b100011 M
b1110 ?
b1110 I
b1110 K
b1110 L
1#
#160
0#
#165
b1110 <
b1110 O
b1110 Q
b101 ;
b101 F
b101 P
b1111 ?
b1111 I
b1111 K
b1111 L
b100100 >
b100100 J
b100100 M
b100 :
b100 E
b100 G
b100 H
1#
#170
0#
#175
b1100000 ;
b1100000 F
b1100000 P
b101 <
b101 O
b101 Q
b0 :
b0 E
b0 G
b0 H
b10000 >
b10000 J
b10000 M
b10000 ?
b10000 I
b10000 K
b10000 L
1#
#180
0#
#185
b110 <
b110 O
b110 Q
b110001 ;
b110001 F
b110001 P
b10001 ?
b10001 I
b10001 K
b10001 L
b10001 >
b10001 J
b10001 M
b1 :
b1 E
b1 G
b1 H
1#
#190
0#
#195
b1001 ;
b1001 F
b1001 P
b111 <
b111 O
b111 Q
b10 :
b10 E
b10 G
b10 H
b10010 >
b10010 J
b10010 M
b10010 ?
b10010 I
b10010 K
b10010 L
1#
#200
0#
#205
b1000 <
b1000 O
b1000 Q
b100111 ;
b100111 F
b100111 P
b10011 ?
b10011 I
b10011 K
b10011 L
b10011 >
b10011 J
b10011 M
b11 :
b11 E
b11 G
b11 H
1#
#210
0#
#215
b101 ;
b101 F
b101 P
b1001 <
b1001 O
b1001 Q
b100 :
b100 E
b100 G
b100 H
b10100 >
b10100 J
b10100 M
b10100 ?
b10100 I
b10100 K
b10100 L
1#
#220
0#
#225
b0 <
b0 O
b0 Q
b1100000 ;
b1100000 F
b1100000 P
b10101 ?
b10101 I
b10101 K
b10101 L
b0 >
b0 J
b0 M
b0 :
b0 E
b0 G
b0 H
1#
#230
0#
#235
b110001 ;
b110001 F
b110001 P
b1 <
b1 O
b1 Q
b1 :
b1 E
b1 G
b1 H
b1 >
b1 J
b1 M
b10110 ?
b10110 I
b10110 K
b10110 L
1#
#240
0#
#245
b10 <
b10 O
b10 Q
b1001 ;
b1001 F
b1001 P
b10111 ?
b10111 I
b10111 K
b10111 L
b10 >
b10 J
b10 M
b10 :
b10 E
b10 G
b10 H
1#
#250
0#
#255
b100111 ;
b100111 F
b100111 P
b11 <
b11 O
b11 Q
b11 :
b11 E
b11 G
b11 H
b11 >
b11 J
b11 M
b11000 ?
b11000 I
b11000 K
b11000 L
1#
#260
0#
#265
b100 <
b100 O
b100 Q
b101 ;
b101 F
b101 P
b11001 ?
b11001 I
b11001 K
b11001 L
b100 >
b100 J
b100 M
b100 :
b100 E
b100 G
b100 H
1#
#270
0#
#275
b1100000 ;
b1100000 F
b1100000 P
bx <
bx O
bx Q
b0 :
b0 E
b0 G
b0 H
bx >
bx J
bx M
b11010 ?
b11010 I
b11010 K
b11010 L
1#
#280
0#
#285
b110001 ;
b110001 F
b110001 P
b11011 ?
b11011 I
b11011 K
b11011 L
b1 :
b1 E
b1 G
b1 H
1#
#290
0#
#295
b1001 ;
b1001 F
b1001 P
b10 :
b10 E
b10 G
b10 H
b11100 ?
b11100 I
b11100 K
b11100 L
1#
#300
0#
#305
b100111 ;
b100111 F
b100111 P
b11101 ?
b11101 I
b11101 K
b11101 L
b11 :
b11 E
b11 G
b11 H
1#
#310
0#
#315
b101 ;
b101 F
b101 P
b100 :
b100 E
b100 G
b100 H
b11110 ?
b11110 I
b11110 K
b11110 L
1#
#320
0#
#325
b1100000 ;
b1100000 F
b1100000 P
b11111 ?
b11111 I
b11111 K
b11111 L
b0 :
b0 E
b0 G
b0 H
1#
#330
0#
#335
b110001 ;
b110001 F
b110001 P
b1 :
b1 E
b1 G
b1 H
b100000 ?
b100000 I
b100000 K
b100000 L
1#
#340
0#
#345
b1001 ;
b1001 F
b1001 P
b100001 ?
b100001 I
b100001 K
b100001 L
b10 :
b10 E
b10 G
b10 H
1#
#350
0#
#355
b100111 ;
b100111 F
b100111 P
b11 :
b11 E
b11 G
b11 H
b100010 ?
b100010 I
b100010 K
b100010 L
1#
#360
0#
#365
b101 ;
b101 F
b101 P
b100011 ?
b100011 I
b100011 K
b100011 L
b100 :
b100 E
b100 G
b100 H
1#
#370
0#
#375
b1100000 ;
b1100000 F
b1100000 P
b0 :
b0 E
b0 G
b0 H
b100100 ?
b100100 I
b100100 K
b100100 L
1#
#380
0#
#385
b110001 ;
b110001 F
b110001 P
b100101 ?
b100101 I
b100101 K
b100101 L
b1 :
b1 E
b1 G
b1 H
1#
#390
0#
#395
b1001 ;
b1001 F
b1001 P
b10 :
b10 E
b10 G
b10 H
b100110 ?
b100110 I
b100110 K
b100110 L
1#
#400
0#
#405
b100111 ;
b100111 F
b100111 P
b100111 ?
b100111 I
b100111 K
b100111 L
b11 :
b11 E
b11 G
b11 H
1#
#410
0#
#415
b101 ;
b101 F
b101 P
b100 :
b100 E
b100 G
b100 H
b101000 ?
b101000 I
b101000 K
b101000 L
1#
#420
0#
#425
b1100000 ;
b1100000 F
b1100000 P
b101001 ?
b101001 I
b101001 K
b101001 L
b0 :
b0 E
b0 G
b0 H
1#
#430
0#
#435
b110001 ;
b110001 F
b110001 P
b1 :
b1 E
b1 G
b1 H
b101010 ?
b101010 I
b101010 K
b101010 L
1#
#440
0#
#445
b1001 ;
b1001 F
b1001 P
b101011 ?
b101011 I
b101011 K
b101011 L
b10 :
b10 E
b10 G
b10 H
1#
#450
0#
#455
b100111 ;
b100111 F
b100111 P
b11 :
b11 E
b11 G
b11 H
b101100 ?
b101100 I
b101100 K
b101100 L
1#
#460
0#
#465
b101 ;
b101 F
b101 P
1!
12
b0 ?
b0 I
b0 K
b0 L
b100 :
b100 E
b100 G
b100 H
1#
#470
0#
b11001 *
b0 $
b0 ,
b0 5
b0 @
#475
11
14
b0 ;
b0 F
b0 P
b10100 <
b10100 O
b10100 Q
b0 T
b0 :
b0 E
b0 G
b0 H
b1000000 >
b1000000 J
b1000000 M
0!
02
b1 ?
b1 I
b1 K
b1 L
1#
#480
0#
#485
b10101 <
b10101 O
b10101 Q
04
b0 ?
b0 I
b0 K
b0 L
b1000001 >
b1000001 J
b1000001 M
b1 T
1#
#490
0#
#495
01
b10100 <
b10100 O
b10100 Q
b10 T
b1000000 >
b1000000 J
b1000000 M
b1 ?
b1 I
b1 K
b1 L
1#
#500
0#
#505
b10101 <
b10101 O
b10101 Q
b110001 ;
b110001 F
b110001 P
b10 ?
b10 I
b10 K
b10 L
b1000001 >
b1000001 J
b1000001 M
b1 :
b1 E
b1 G
b1 H
1#
#510
0#
#515
b1001 ;
b1001 F
b1001 P
b10110 <
b10110 O
b10110 Q
b10 :
b10 E
b10 G
b10 H
b1000010 >
b1000010 J
b1000010 M
b11 ?
b11 I
b11 K
b11 L
1#
#520
0#
#525
b10111 <
b10111 O
b10111 Q
b100111 ;
b100111 F
b100111 P
b100 ?
b100 I
b100 K
b100 L
b1000011 >
b1000011 J
b1000011 M
b11 :
b11 E
b11 G
b11 H
1#
#530
0#
#535
b101 ;
b101 F
b101 P
b11000 <
b11000 O
b11000 Q
b100 :
b100 E
b100 G
b100 H
b1000100 >
b1000100 J
b1000100 M
b101 ?
b101 I
b101 K
b101 L
1#
#540
0#
#545
b1111 <
b1111 O
b1111 Q
b0 ;
b0 F
b0 P
b110 ?
b110 I
b110 K
b110 L
b110000 >
b110000 J
b110000 M
b0 :
b0 E
b0 G
b0 H
1#
#550
0#
#555
b110001 ;
b110001 F
b110001 P
b10000 <
b10000 O
b10000 Q
b1 :
b1 E
b1 G
b1 H
b110001 >
b110001 J
b110001 M
b111 ?
b111 I
b111 K
b111 L
1#
#560
0#
#565
b10001 <
b10001 O
b10001 Q
b1001 ;
b1001 F
b1001 P
b1000 ?
b1000 I
b1000 K
b1000 L
b110010 >
b110010 J
b110010 M
b10 :
b10 E
b10 G
b10 H
1#
#570
0#
#575
b100111 ;
b100111 F
b100111 P
b10010 <
b10010 O
b10010 Q
b11 :
b11 E
b11 G
b11 H
b110011 >
b110011 J
b110011 M
b1001 ?
b1001 I
b1001 K
b1001 L
1#
#580
0#
#585
b10011 <
b10011 O
b10011 Q
b101 ;
b101 F
b101 P
b1010 ?
b1010 I
b1010 K
b1010 L
b110100 >
b110100 J
b110100 M
b100 :
b100 E
b100 G
b100 H
1#
#590
0#
#595
b0 ;
b0 F
b0 P
b1010 <
b1010 O
b1010 Q
b0 :
b0 E
b0 G
b0 H
b100000 >
b100000 J
b100000 M
b1011 ?
b1011 I
b1011 K
b1011 L
1#
#600
0#
#605
b1011 <
b1011 O
b1011 Q
b110001 ;
b110001 F
b110001 P
b1100 ?
b1100 I
b1100 K
b1100 L
b100001 >
b100001 J
b100001 M
b1 :
b1 E
b1 G
b1 H
1#
#610
0#
#615
b1001 ;
b1001 F
b1001 P
b1100 <
b1100 O
b1100 Q
b10 :
b10 E
b10 G
b10 H
b100010 >
b100010 J
b100010 M
b1101 ?
b1101 I
b1101 K
b1101 L
1#
#620
0#
#625
b1101 <
b1101 O
b1101 Q
b100111 ;
b100111 F
b100111 P
b1110 ?
b1110 I
b1110 K
b1110 L
b100011 >
b100011 J
b100011 M
b11 :
b11 E
b11 G
b11 H
1#
#630
0#
#635
b101 ;
b101 F
b101 P
b1110 <
b1110 O
b1110 Q
b100 :
b100 E
b100 G
b100 H
b100100 >
b100100 J
b100100 M
b1111 ?
b1111 I
b1111 K
b1111 L
1#
#640
0#
#645
b101 <
b101 O
b101 Q
b0 ;
b0 F
b0 P
b10000 ?
b10000 I
b10000 K
b10000 L
b10000 >
b10000 J
b10000 M
b0 :
b0 E
b0 G
b0 H
1#
#650
0#
#655
b110001 ;
b110001 F
b110001 P
b110 <
b110 O
b110 Q
b1 :
b1 E
b1 G
b1 H
b10001 >
b10001 J
b10001 M
b10001 ?
b10001 I
b10001 K
b10001 L
1#
#660
0#
#665
b111 <
b111 O
b111 Q
b1001 ;
b1001 F
b1001 P
b10010 ?
b10010 I
b10010 K
b10010 L
b10010 >
b10010 J
b10010 M
b10 :
b10 E
b10 G
b10 H
1#
#670
0#
#675
b100111 ;
b100111 F
b100111 P
b1000 <
b1000 O
b1000 Q
b11 :
b11 E
b11 G
b11 H
b10011 >
b10011 J
b10011 M
b10011 ?
b10011 I
b10011 K
b10011 L
1#
#680
0#
#685
b1001 <
b1001 O
b1001 Q
b101 ;
b101 F
b101 P
b10100 ?
b10100 I
b10100 K
b10100 L
b10100 >
b10100 J
b10100 M
b100 :
b100 E
b100 G
b100 H
1#
#690
0#
#695
b0 ;
b0 F
b0 P
b0 <
b0 O
b0 Q
b0 :
b0 E
b0 G
b0 H
b0 >
b0 J
b0 M
b10101 ?
b10101 I
b10101 K
b10101 L
1#
#700
0#
#705
b1 <
b1 O
b1 Q
b110001 ;
b110001 F
b110001 P
b10110 ?
b10110 I
b10110 K
b10110 L
b1 >
b1 J
b1 M
b1 :
b1 E
b1 G
b1 H
1#
#710
0#
#715
b1001 ;
b1001 F
b1001 P
b10 <
b10 O
b10 Q
b10 :
b10 E
b10 G
b10 H
b10 >
b10 J
b10 M
b10111 ?
b10111 I
b10111 K
b10111 L
1#
#720
0#
#725
b11 <
b11 O
b11 Q
b100111 ;
b100111 F
b100111 P
b11000 ?
b11000 I
b11000 K
b11000 L
b11 >
b11 J
b11 M
b11 :
b11 E
b11 G
b11 H
1#
#730
0#
#735
b101 ;
b101 F
b101 P
b100 <
b100 O
b100 Q
b100 :
b100 E
b100 G
b100 H
b100 >
b100 J
b100 M
b11001 ?
b11001 I
b11001 K
b11001 L
1#
#740
0#
#745
bx <
bx O
bx Q
b0 ;
b0 F
b0 P
b11010 ?
b11010 I
b11010 K
b11010 L
bx >
bx J
bx M
b0 :
b0 E
b0 G
b0 H
1#
#750
0#
#755
b110001 ;
b110001 F
b110001 P
b1 :
b1 E
b1 G
b1 H
b11011 ?
b11011 I
b11011 K
b11011 L
1#
#760
0#
#765
b1001 ;
b1001 F
b1001 P
b11100 ?
b11100 I
b11100 K
b11100 L
b10 :
b10 E
b10 G
b10 H
1#
#770
0#
#775
b100111 ;
b100111 F
b100111 P
b11 :
b11 E
b11 G
b11 H
b11101 ?
b11101 I
b11101 K
b11101 L
1#
#780
0#
#785
b101 ;
b101 F
b101 P
b11110 ?
b11110 I
b11110 K
b11110 L
b100 :
b100 E
b100 G
b100 H
1#
#790
0#
#795
b0 ;
b0 F
b0 P
b0 :
b0 E
b0 G
b0 H
b11111 ?
b11111 I
b11111 K
b11111 L
1#
#800
0#
#805
b110001 ;
b110001 F
b110001 P
b100000 ?
b100000 I
b100000 K
b100000 L
b1 :
b1 E
b1 G
b1 H
1#
#810
0#
#815
b1001 ;
b1001 F
b1001 P
b10 :
b10 E
b10 G
b10 H
b100001 ?
b100001 I
b100001 K
b100001 L
1#
#820
0#
#825
b100111 ;
b100111 F
b100111 P
b100010 ?
b100010 I
b100010 K
b100010 L
b11 :
b11 E
b11 G
b11 H
1#
#830
0#
#835
b101 ;
b101 F
b101 P
b100 :
b100 E
b100 G
b100 H
b100011 ?
b100011 I
b100011 K
b100011 L
1#
#840
0#
#845
b0 ;
b0 F
b0 P
b100100 ?
b100100 I
b100100 K
b100100 L
b0 :
b0 E
b0 G
b0 H
1#
#850
0#
#855
b110001 ;
b110001 F
b110001 P
b1 :
b1 E
b1 G
b1 H
b100101 ?
b100101 I
b100101 K
b100101 L
1#
#860
0#
#865
b1001 ;
b1001 F
b1001 P
b100110 ?
b100110 I
b100110 K
b100110 L
b10 :
b10 E
b10 G
b10 H
1#
#870
0#
#875
b100111 ;
b100111 F
b100111 P
b11 :
b11 E
b11 G
b11 H
b100111 ?
b100111 I
b100111 K
b100111 L
1#
#880
0#
#885
b101 ;
b101 F
b101 P
b101000 ?
b101000 I
b101000 K
b101000 L
b100 :
b100 E
b100 G
b100 H
1#
#890
0#
#895
b0 ;
b0 F
b0 P
b0 :
b0 E
b0 G
b0 H
b101001 ?
b101001 I
b101001 K
b101001 L
1#
#900
0#
#905
b110001 ;
b110001 F
b110001 P
b101010 ?
b101010 I
b101010 K
b101010 L
b1 :
b1 E
b1 G
b1 H
1#
#910
0#
#915
b1001 ;
b1001 F
b1001 P
b10 :
b10 E
b10 G
b10 H
b101011 ?
b101011 I
b101011 K
b101011 L
1#
#920
0#
#925
b100111 ;
b100111 F
b100111 P
b101100 ?
b101100 I
b101100 K
b101100 L
b11 :
b11 E
b11 G
b11 H
1#
#930
0#
#935
b101 ;
b101 F
b101 P
b100 :
b100 E
b100 G
b100 H
1!
12
b0 ?
b0 I
b0 K
b0 L
1#
#940
0#
#945
b10100 <
b10100 O
b10100 Q
b0 ;
b0 F
b0 P
11
14
0!
02
b1 ?
b1 I
b1 K
b1 L
b1000000 >
b1000000 J
b1000000 M
b0 :
b0 E
b0 G
b0 H
b0 T
1#
#950
0#
#955
04
b10101 <
b10101 O
b10101 Q
b1 T
b1000001 >
b1000001 J
b1000001 M
b0 ?
b0 I
b0 K
b0 L
1#
#960
0#
#965
b10100 <
b10100 O
b10100 Q
01
b1 ?
b1 I
b1 K
b1 L
b1000000 >
b1000000 J
b1000000 M
b10 T
1#
