Systolic_Array_test.vcd
$date
	Thu Sep 22 11:24:28 2022
$end
$version
	Icarus Verilog
$end
$timescale
	1s
$end
$scope module Systolic_Array_test $end
$var wire 32 ! B4_out [31:0] $end
$var wire 32 " B3_out [31:0] $end
$var wire 32 # B2_out [31:0] $end
$var wire 32 $ B1_out [31:0] $end
$var wire 32 % B0_out [31:0] $end
$var wire 32 & A4_out [31:0] $end
$var wire 32 ' A3_out [31:0] $end
$var wire 32 ( A2_out [31:0] $end
$var wire 32 ) A1_out [31:0] $end
$var wire 32 * A0_out [31:0] $end
$var reg 32 + A0 [31:0] $end
$var reg 32 , A1 [31:0] $end
$var reg 32 - A2 [31:0] $end
$var reg 32 . A3 [31:0] $end
$var reg 32 / A4 [31:0] $end
$var reg 32 0 B0 [31:0] $end
$var reg 32 1 B1 [31:0] $end
$var reg 32 2 B2 [31:0] $end
$var reg 32 3 B3 [31:0] $end
$var reg 32 4 B4 [31:0] $end
$var reg 1 5 clk $end
$var reg 25 6 clr [24:0] $end
$var reg 25 7 read [24:0] $end
$var reg 25 8 write [24:0] $end
$var integer 32 9 i [31:0] $end
$scope module DUT $end
$var wire 32 : A0 [31:0] $end
$var wire 32 ; A1 [31:0] $end
$var wire 32 < A2 [31:0] $end
$var wire 32 = A3 [31:0] $end
$var wire 32 > A4 [31:0] $end
$var wire 32 ? B0 [31:0] $end
$var wire 32 @ B1 [31:0] $end
$var wire 32 A B2 [31:0] $end
$var wire 32 B B3 [31:0] $end
$var wire 32 C B4 [31:0] $end
$var wire 1 5 clk $end
$var wire 25 D clr [24:0] $end
$var wire 25 E read [24:0] $end
$var wire 25 F write [24:0] $end
$var wire 4 G cout [3:0] $end
$var wire 32 H B4_temp3 [31:0] $end
$var wire 32 I B4_temp2 [31:0] $end
$var wire 32 J B4_temp1 [31:0] $end
$var wire 32 K B4_temp0 [31:0] $end
$var wire 32 L B4_out [31:0] $end
$var wire 32 M B3_temp3 [31:0] $end
$var wire 32 N B3_temp2 [31:0] $end
$var wire 32 O B3_temp1 [31:0] $end
$var wire 32 P B3_temp0 [31:0] $end
$var wire 32 Q B3_out [31:0] $end
$var wire 32 R B2_temp3 [31:0] $end
$var wire 32 S B2_temp2 [31:0] $end
$var wire 32 T B2_temp1 [31:0] $end
$var wire 32 U B2_temp0 [31:0] $end
$var wire 32 V B2_out [31:0] $end
$var wire 32 W B1_temp3 [31:0] $end
$var wire 32 X B1_temp2 [31:0] $end
$var wire 32 Y B1_temp1 [31:0] $end
$var wire 32 Z B1_temp0 [31:0] $end
$var wire 32 [ B1_out [31:0] $end
$var wire 32 \ B0_temp3 [31:0] $end
$var wire 32 ] B0_temp2 [31:0] $end
$var wire 32 ^ B0_temp1 [31:0] $end
$var wire 32 _ B0_temp0 [31:0] $end
$var wire 32 ` B0_out [31:0] $end
$var wire 32 a A4_out [31:0] $end
$var wire 32 b A3_out [31:0] $end
$var wire 32 c A2_out [31:0] $end
$var wire 32 d A1_out [31:0] $end
$var wire 32 e A0_out [31:0] $end
$scope module C0 $end
$var wire 1 5 clk $end
$var wire 1 f clr $end
$var reg 4 g out [3:0] $end
$upscope $end
$scope module PE_layer0 $end
$var wire 32 h A0 [31:0] $end
$var wire 32 i B0 [31:0] $end
$var wire 32 j B1 [31:0] $end
$var wire 32 k B2 [31:0] $end
$var wire 32 l B3 [31:0] $end
$var wire 32 m B4 [31:0] $end
$var wire 1 5 clk $end
$var wire 5 n clr [4:0] $end
$var wire 5 o read [4:0] $end
$var wire 5 p write [4:0] $end
$var wire 32 q B4_out [31:0] $end
$var wire 32 r B3_out [31:0] $end
$var wire 32 s B2_out [31:0] $end
$var wire 32 t B1_out [31:0] $end
$var wire 32 u B0_out [31:0] $end
$var wire 32 v A0_temp3 [31:0] $end
$var wire 32 w A0_temp2 [31:0] $end
$var wire 32 x A0_temp1 [31:0] $end
$var wire 32 y A0_temp0 [31:0] $end
$var wire 32 z A0_out [31:0] $end
$scope module PE0 $end
$var wire 32 { A [31:0] $end
$var wire 32 | B [31:0] $end
$var wire 1 5 clk $end
$var wire 1 } clr $end
$var wire 1 ~ read $end
$var wire 1 !" write $end
$var reg 32 "" Acc [31:0] $end
$var reg 32 #" Aout [31:0] $end
$var reg 32 $" Bout [31:0] $end
$upscope $end
$scope module PE1 $end
$var wire 32 %" A [31:0] $end
$var wire 32 &" B [31:0] $end
$var wire 1 5 clk $end
$var wire 1 '" clr $end
$var wire 1 (" read $end
$var wire 1 )" write $end
$var reg 32 *" Acc [31:0] $end
$var reg 32 +" Aout [31:0] $end
$var reg 32 ," Bout [31:0] $end
$upscope $end
$scope module PE2 $end
$var wire 32 -" A [31:0] $end
$var wire 32 ." B [31:0] $end
$var wire 1 5 clk $end
$var wire 1 /" clr $end
$var wire 1 0" read $end
$var wire 1 1" write $end
$var reg 32 2" Acc [31:0] $end
$var reg 32 3" Aout [31:0] $end
$var reg 32 4" Bout [31:0] $end
$upscope $end
$scope module PE3 $end
$var wire 32 5" A [31:0] $end
$var wire 32 6" B [31:0] $end
$var wire 1 5 clk $end
$var wire 1 7" clr $end
$var wire 1 8" read $end
$var wire 1 9" write $end
$var reg 32 :" Acc [31:0] $end
$var reg 32 ;" Aout [31:0] $end
$var reg 32 <" Bout [31:0] $end
$upscope $end
$scope module PE4 $end
$var wire 32 =" A [31:0] $end
$var wire 32 >" B [31:0] $end
$var wire 1 5 clk $end
$var wire 1 ?" clr $end
$var wire 1 @" read $end
$var wire 1 A" write $end
$var reg 32 B" Acc [31:0] $end
$var reg 32 C" Aout [31:0] $end
$var reg 32 D" Bout [31:0] $end
$upscope $end
$upscope $end
$scope module PE_layer1 $end
$var wire 32 E" A0 [31:0] $end
$var wire 32 F" B0 [31:0] $end
$var wire 32 G" B1 [31:0] $end
$var wire 32 H" B2 [31:0] $end
$var wire 32 I" B3 [31:0] $end
$var wire 32 J" B4 [31:0] $end
$var wire 1 5 clk $end
$var wire 5 K" clr [4:0] $end
$var wire 5 L" read [4:0] $end
$var wire 5 M" write [4:0] $end
$var wire 32 N" B4_out [31:0] $end
$var wire 32 O" B3_out [31:0] $end
$var wire 32 P" B2_out [31:0] $end
$var wire 32 Q" B1_out [31:0] $end
$var wire 32 R" B0_out [31:0] $end
$var wire 32 S" A0_temp3 [31:0] $end
$var wire 32 T" A0_temp2 [31:0] $end
$var wire 32 U" A0_temp1 [31:0] $end
$var wire 32 V" A0_temp0 [31:0] $end
$var wire 32 W" A0_out [31:0] $end
$scope module PE0 $end
$var wire 32 X" A [31:0] $end
$var wire 32 Y" B [31:0] $end
$var wire 1 5 clk $end
$var wire 1 Z" clr $end
$var wire 1 [" read $end
$var wire 1 \" write $end
$var reg 32 ]" Acc [31:0] $end
$var reg 32 ^" Aout [31:0] $end
$var reg 32 _" Bout [31:0] $end
$upscope $end
$scope module PE1 $end
$var wire 32 `" A [31:0] $end
$var wire 32 a" B [31:0] $end
$var wire 1 5 clk $end
$var wire 1 b" clr $end
$var wire 1 c" read $end
$var wire 1 d" write $end
$var reg 32 e" Acc [31:0] $end
$var reg 32 f" Aout [31:0] $end
$var reg 32 g" Bout [31:0] $end
$upscope $end
$scope module PE2 $end
$var wire 32 h" A [31:0] $end
$var wire 32 i" B [31:0] $end
$var wire 1 5 clk $end
$var wire 1 j" clr $end
$var wire 1 k" read $end
$var wire 1 l" write $end
$var reg 32 m" Acc [31:0] $end
$var reg 32 n" Aout [31:0] $end
$var reg 32 o" Bout [31:0] $end
$upscope $end
$scope module PE3 $end
$var wire 32 p" A [31:0] $end
$var wire 32 q" B [31:0] $end
$var wire 1 5 clk $end
$var wire 1 r" clr $end
$var wire 1 s" read $end
$var wire 1 t" write $end
$var reg 32 u" Acc [31:0] $end
$var reg 32 v" Aout [31:0] $end
$var reg 32 w" Bout [31:0] $end
$upscope $end
$scope module PE4 $end
$var wire 32 x" A [31:0] $end
$var wire 32 y" B [31:0] $end
$var wire 1 5 clk $end
$var wire 1 z" clr $end
$var wire 1 {" read $end
$var wire 1 |" write $end
$var reg 32 }" Acc [31:0] $end
$var reg 32 ~" Aout [31:0] $end
$var reg 32 !# Bout [31:0] $end
$upscope $end
$upscope $end
$scope module PE_layer2 $end
$var wire 32 "# A0 [31:0] $end
$var wire 32 ## B0 [31:0] $end
$var wire 32 $# B1 [31:0] $end
$var wire 32 %# B2 [31:0] $end
$var wire 32 &# B3 [31:0] $end
$var wire 32 '# B4 [31:0] $end
$var wire 1 5 clk $end
$var wire 5 (# clr [4:0] $end
$var wire 5 )# read [4:0] $end
$var wire 5 *# write [4:0] $end
$var wire 32 +# B4_out [31:0] $end
$var wire 32 ,# B3_out [31:0] $end
$var wire 32 -# B2_out [31:0] $end
$var wire 32 .# B1_out [31:0] $end
$var wire 32 /# B0_out [31:0] $end
$var wire 32 0# A0_temp3 [31:0] $end
$var wire 32 1# A0_temp2 [31:0] $end
$var wire 32 2# A0_temp1 [31:0] $end
$var wire 32 3# A0_temp0 [31:0] $end
$var wire 32 4# A0_out [31:0] $end
$scope module PE0 $end
$var wire 32 5# A [31:0] $end
$var wire 32 6# B [31:0] $end
$var wire 1 5 clk $end
$var wire 1 7# clr $end
$var wire 1 8# read $end
$var wire 1 9# write $end
$var reg 32 :# Acc [31:0] $end
$var reg 32 ;# Aout [31:0] $end
$var reg 32 <# Bout [31:0] $end
$upscope $end
$scope module PE1 $end
$var wire 32 =# A [31:0] $end
$var wire 32 ># B [31:0] $end
$var wire 1 5 clk $end
$var wire 1 ?# clr $end
$var wire 1 @# read $end
$var wire 1 A# write $end
$var reg 32 B# Acc [31:0] $end
$var reg 32 C# Aout [31:0] $end
$var reg 32 D# Bout [31:0] $end
$upscope $end
$scope module PE2 $end
$var wire 32 E# A [31:0] $end
$var wire 32 F# B [31:0] $end
$var wire 1 5 clk $end
$var wire 1 G# clr $end
$var wire 1 H# read $end
$var wire 1 I# write $end
$var reg 32 J# Acc [31:0] $end
$var reg 32 K# Aout [31:0] $end
$var reg 32 L# Bout [31:0] $end
$upscope $end
$scope module PE3 $end
$var wire 32 M# A [31:0] $end
$var wire 32 N# B [31:0] $end
$var wire 1 5 clk $end
$var wire 1 O# clr $end
$var wire 1 P# read $end
$var wire 1 Q# write $end
$var reg 32 R# Acc [31:0] $end
$var reg 32 S# Aout [31:0] $end
$var reg 32 T# Bout [31:0] $end
$upscope $end
$scope module PE4 $end
$var wire 32 U# A [31:0] $end
$var wire 32 V# B [31:0] $end
$var wire 1 5 clk $end
$var wire 1 W# clr $end
$var wire 1 X# read $end
$var wire 1 Y# write $end
$var reg 32 Z# Acc [31:0] $end
$var reg 32 [# Aout [31:0] $end
$var reg 32 \# Bout [31:0] $end
$upscope $end
$upscope $end
$scope module PE_layer3 $end
$var wire 32 ]# A0 [31:0] $end
$var wire 32 ^# B0 [31:0] $end
$var wire 32 _# B1 [31:0] $end
$var wire 32 `# B2 [31:0] $end
$var wire 32 a# B3 [31:0] $end
$var wire 32 b# B4 [31:0] $end
$var wire 1 5 clk $end
$var wire 5 c# clr [4:0] $end
$var wire 5 d# read [4:0] $end
$var wire 5 e# write [4:0] $end
$var wire 32 f# B4_out [31:0] $end
$var wire 32 g# B3_out [31:0] $end
$var wire 32 h# B2_out [31:0] $end
$var wire 32 i# B1_out [31:0] $end
$var wire 32 j# B0_out [31:0] $end
$var wire 32 k# A0_temp3 [31:0] $end
$var wire 32 l# A0_temp2 [31:0] $end
$var wire 32 m# A0_temp1 [31:0] $end
$var wire 32 n# A0_temp0 [31:0] $end
$var wire 32 o# A0_out [31:0] $end
$scope module PE0 $end
$var wire 32 p# A [31:0] $end
$var wire 32 q# B [31:0] $end
$var wire 1 5 clk $end
$var wire 1 r# clr $end
$var wire 1 s# read $end
$var wire 1 t# write $end
$var reg 32 u# Acc [31:0] $end
$var reg 32 v# Aout [31:0] $end
$var reg 32 w# Bout [31:0] $end
$upscope $end
$scope module PE1 $end
$var wire 32 x# A [31:0] $end
$var wire 32 y# B [31:0] $end
$var wire 1 5 clk $end
$var wire 1 z# clr $end
$var wire 1 {# read $end
$var wire 1 |# write $end
$var reg 32 }# Acc [31:0] $end
$var reg 32 ~# Aout [31:0] $end
$var reg 32 !$ Bout [31:0] $end
$upscope $end
$scope module PE2 $end
$var wire 32 "$ A [31:0] $end
$var wire 32 #$ B [31:0] $end
$var wire 1 5 clk $end
$var wire 1 $$ clr $end
$var wire 1 %$ read $end
$var wire 1 &$ write $end
$var reg 32 '$ Acc [31:0] $end
$var reg 32 ($ Aout [31:0] $end
$var reg 32 )$ Bout [31:0] $end
$upscope $end
$scope module PE3 $end
$var wire 32 *$ A [31:0] $end
$var wire 32 +$ B [31:0] $end
$var wire 1 5 clk $end
$var wire 1 ,$ clr $end
$var wire 1 -$ read $end
$var wire 1 .$ write $end
$var reg 32 /$ Acc [31:0] $end
$var reg 32 0$ Aout [31:0] $end
$var reg 32 1$ Bout [31:0] $end
$upscope $end
$scope module PE4 $end
$var wire 32 2$ A [31:0] $end
$var wire 32 3$ B [31:0] $end
$var wire 1 5 clk $end
$var wire 1 4$ clr $end
$var wire 1 5$ read $end
$var wire 1 6$ write $end
$var reg 32 7$ Acc [31:0] $end
$var reg 32 8$ Aout [31:0] $end
$var reg 32 9$ Bout [31:0] $end
$upscope $end
$upscope $end
$scope module PE_layer4 $end
$var wire 32 :$ A0 [31:0] $end
$var wire 32 ;$ B0 [31:0] $end
$var wire 32 <$ B1 [31:0] $end
$var wire 32 =$ B2 [31:0] $end
$var wire 32 >$ B3 [31:0] $end
$var wire 32 ?$ B4 [31:0] $end
$var wire 1 5 clk $end
$var wire 5 @$ clr [4:0] $end
$var wire 5 A$ read [4:0] $end
$var wire 5 B$ write [4:0] $end
$var wire 32 C$ B4_out [31:0] $end
$var wire 32 D$ B3_out [31:0] $end
$var wire 32 E$ B2_out [31:0] $end
$var wire 32 F$ B1_out [31:0] $end
$var wire 32 G$ B0_out [31:0] $end
$var wire 32 H$ A0_temp3 [31:0] $end
$var wire 32 I$ A0_temp2 [31:0] $end
$var wire 32 J$ A0_temp1 [31:0] $end
$var wire 32 K$ A0_temp0 [31:0] $end
$var wire 32 L$ A0_out [31:0] $end
$scope module PE0 $end
$var wire 32 M$ A [31:0] $end
$var wire 32 N$ B [31:0] $end
$var wire 1 5 clk $end
$var wire 1 O$ clr $end
$var wire 1 P$ read $end
$var wire 1 Q$ write $end
$var reg 32 R$ Acc [31:0] $end
$var reg 32 S$ Aout [31:0] $end
$var reg 32 T$ Bout [31:0] $end
$upscope $end
$scope module PE1 $end
$var wire 32 U$ A [31:0] $end
$var wire 32 V$ B [31:0] $end
$var wire 1 5 clk $end
$var wire 1 W$ clr $end
$var wire 1 X$ read $end
$var wire 1 Y$ write $end
$var reg 32 Z$ Acc [31:0] $end
$var reg 32 [$ Aout [31:0] $end
$var reg 32 \$ Bout [31:0] $end
$upscope $end
$scope module PE2 $end
$var wire 32 ]$ A [31:0] $end
$var wire 32 ^$ B [31:0] $end
$var wire 1 5 clk $end
$var wire 1 _$ clr $end
$var wire 1 `$ read $end
$var wire 1 a$ write $end
$var reg 32 b$ Acc [31:0] $end
$var reg 32 c$ Aout [31:0] $end
$var reg 32 d$ Bout [31:0] $end
$upscope $end
$scope module PE3 $end
$var wire 32 e$ A [31:0] $end
$var wire 32 f$ B [31:0] $end
$var wire 1 5 clk $end
$var wire 1 g$ clr $end
$var wire 1 h$ read $end
$var wire 1 i$ write $end
$var reg 32 j$ Acc [31:0] $end
$var reg 32 k$ Aout [31:0] $end
$var reg 32 l$ Bout [31:0] $end
$upscope $end
$scope module PE4 $end
$var wire 32 m$ A [31:0] $end
$var wire 32 n$ B [31:0] $end
$var wire 1 5 clk $end
$var wire 1 o$ clr $end
$var wire 1 p$ read $end
$var wire 1 q$ write $end
$var reg 32 r$ Acc [31:0] $end
$var reg 32 s$ Aout [31:0] $end
$var reg 32 t$ Bout [31:0] $end
$upscope $end
$upscope $end
$upscope $end
$upscope $end
$enddefinitions $end
#0
$dumpvars
bx t$
bx s$
bx r$
0q$
0p$
1o$
bx n$
bx m$
bx l$
bx k$
bx j$
0i$
0h$
1g$
bx f$
bx e$
bx d$
bx c$
bx b$
0a$
0`$
1_$
bx ^$
bx ]$
bx \$
bx [$
bx Z$
0Y$
0X$
1W$
bx V$
bx U$
bx T$
bx S$
bx R$
0Q$
0P$
1O$
bx N$
bx M$
bx L$
bx K$
bx J$
bx I$
bx H$
bx G$
bx F$
bx E$
bx D$
bx C$
b0 B$
b0 A$
b11111 @$
bx ?$
bx >$
bx =$
bx <$
bx ;$
bx :$
bx 9$
bx 8$
bx 7$
06$
05$
14$
bx 3$
bx 2$
bx 1$
bx 0$
bx /$
0.$
0-$
1,$
bx +$
bx *$
bx )$
bx ($
bx '$
0&$
0%$
1$$
bx #$
bx "$
bx !$
bx ~#
bx }#
0|#
0{#
1z#
bx y#
bx x#
bx w#
bx v#
bx u#
0t#
0s#
1r#
bx q#
bx p#
bx o#
bx n#
bx m#
bx l#
bx k#
bx j#
bx i#
bx h#
bx g#
bx f#
b0 e#
b0 d#
b11111 c#
bx b#
bx a#
bx `#
bx _#
bx ^#
bx ]#
bx \#
bx [#
bx Z#
0Y#
0X#
1W#
bx V#
bx U#
bx T#
bx S#
bx R#
0Q#
0P#
1O#
bx N#
bx M#
bx L#
bx K#
bx J#
0I#
0H#
1G#
bx F#
bx E#
bx D#
bx C#
bx B#
0A#
0@#
1?#
bx >#
bx =#
bx <#
bx ;#
bx :#
09#
08#
17#
bx 6#
bx 5#
bx 4#
bx 3#
bx 2#
bx 1#
bx 0#
bx /#
bx .#
bx -#
bx ,#
bx +#
b0 *#
b0 )#
b11111 (#
bx '#
bx &#
bx %#
bx $#
bx ##
bx "#
bx !#
bx ~"
bx }"
0|"
0{"
1z"
bx y"
bx x"
bx w"
bx v"
bx u"
0t"
0s"
1r"
bx q"
bx p"
bx o"
bx n"
bx m"
0l"
0k"
1j"
bx i"
bx h"
bx g"
bx f"
bx e"
0d"
0c"
1b"
bx a"
bx `"
bx _"
bx ^"
bx ]"
0\"
0["
1Z"
bx Y"
bx X"
bx W"
bx V"
bx U"
bx T"
bx S"
bx R"
bx Q"
bx P"
bx O"
bx N"
b0 M"
b0 L"
b11111 K"
bx J"
bx I"
bx H"
bx G"
bx F"
bx E"
bx D"
bx C"
bx B"
0A"
0@"
1?"
bx >"
bx ="
bx <"
bx ;"
bx :"
09"
08"
17"
bx 6"
bx 5"
bx 4"
bx 3"
bx 2"
01"
00"
1/"
bx ."
bx -"
bx ,"
bx +"
bx *"
0)"
0("
1'"
bx &"
bx %"
bx $"
bx #"
bx ""
0!"
0~
1}
bx |
bx {
bx z
bx y
bx x
bx w
bx v
bx u
bx t
bx s
bx r
bx q
b0 p
b0 o
b11111 n
bx m
bx l
bx k
bx j
bx i
bx h
bx g
1f
bx e
bx d
bx c
bx b
bx a
bx `
bx _
bx ^
bx ]
bx \
bx [
bx Z
bx Y
bx X
bx W
bx V
bx U
bx T
bx S
bx R
bx Q
bx P
bx O
bx N
bx M
bx L
bx K
bx J
bx I
bx H
bx G
b0 F
b0 E
b1111111111111111111111111 D
bx C
bx B
bx A
bx @
bx ?
bx >
bx =
bx <
bx ;
bx :
b0 9
b0 8
b0 7
b1111111111111111111111111 6
05
bx 4
bx 3
bx 2
bx 1
bx 0
bx /
bx .
bx -
bx ,
bx +
bx *
bx )
bx (
bx '
bx &
bx %
bx $
bx #
bx "
bx !
$end
#5
b0 G
b0 g
b0 _
b0 u
b0 $"
b0 F"
b0 Y"
b0 y
b0 #"
b0 %"
b0 ""
b0 Z
b0 t
b0 ,"
b0 G"
b0 a"
b0 x
b0 +"
b0 -"
b0 *"
b0 U
b0 s
b0 4"
b0 H"
b0 i"
b0 w
b0 3"
b0 5"
b0 2"
b0 P
b0 r
b0 <"
b0 I"
b0 q"
b0 v
b0 ;"
b0 ="
b0 :"
b0 K
b0 q
b0 D"
b0 J"
b0 y"
b0 *
b0 e
b0 z
b0 C"
b0 B"
b0 ^
b0 R"
b0 _"
b0 ##
b0 6#
b0 V"
b0 ^"
b0 `"
b0 ]"
b0 Y
b0 Q"
b0 g"
b0 $#
b0 >#
b0 U"
b0 f"
b0 h"
b0 e"
b0 T
b0 P"
b0 o"
b0 %#
b0 F#
b0 T"
b0 n"
b0 p"
b0 m"
b0 O
b0 O"
b0 w"
b0 &#
b0 N#
b0 S"
b0 v"
b0 x"
b0 u"
b0 J
b0 N"
b0 !#
b0 '#
b0 V#
b0 )
b0 d
b0 W"
b0 ~"
b0 }"
b0 ]
b0 /#
b0 <#
b0 ^#
b0 q#
b0 3#
b0 ;#
b0 =#
b0 :#
b0 X
b0 .#
b0 D#
b0 _#
b0 y#
b0 2#
b0 C#
b0 E#
b0 B#
b0 S
b0 -#
b0 L#
b0 `#
b0 #$
b0 1#
b0 K#
b0 M#
b0 J#
b0 N
b0 ,#
b0 T#
b0 a#
b0 +$
b0 0#
b0 S#
b0 U#
b0 R#
b0 I
b0 +#
b0 \#
b0 b#
b0 3$
b0 (
b0 c
b0 4#
b0 [#
b0 Z#
b0 \
b0 j#
b0 w#
b0 ;$
b0 N$
b0 n#
b0 v#
b0 x#
b0 u#
b0 W
b0 i#
b0 !$
b0 <$
b0 V$
b0 m#
b0 ~#
b0 "$
b0 }#
b0 R
b0 h#
b0 )$
b0 =$
b0 ^$
b0 l#
b0 ($
b0 *$
b0 '$
b0 M
b0 g#
b0 1$
b0 >$
b0 f$
b0 k#
b0 0$
b0 2$
b0 /$
b0 H
b0 f#
b0 9$
b0 ?$
b0 n$
b0 '
b0 b
b0 o#
b0 8$
b0 7$
b0 %
b0 `
b0 G$
b0 T$
b0 K$
b0 S$
b0 U$
b0 R$
b0 $
b0 [
b0 F$
b0 \$
b0 J$
b0 [$
b0 ]$
b0 Z$
b0 #
b0 V
b0 E$
b0 d$
b0 I$
b0 c$
b0 e$
b0 b$
b0 "
b0 Q
b0 D$
b0 l$
b0 H$
b0 k$
b0 m$
b0 j$
b0 !
b0 L
b0 C$
b0 t$
b0 &
b0 a
b0 L$
b0 s$
b0 r$
15
#10
0}
0'"
0/"
07"
0?"
0Z"
0b"
0j"
0r"
0z"
07#
0?#
0G#
0O#
0W#
0r#
0z#
0$$
0,$
04$
0O$
0W$
0_$
0g$
0o$
0f
b0 n
b0 K"
b0 (#
b0 c#
b0 @$
05
b1 9
b0 4
b0 C
b0 m
b0 >"
b0 3
b0 B
b0 l
b0 6"
b0 2
b0 A
b0 k
b0 ."
b0 1
b0 @
b0 j
b0 &"
b10 0
b10 ?
b10 i
b10 |
b0 /
b0 >
b0 :$
b0 M$
b0 .
b0 =
b0 ]#
b0 p#
b0 -
b0 <
b0 "#
b0 5#
b0 ,
b0 ;
b0 E"
b0 X"
b0 +
b0 :
b0 h
b0 {
b0 6
b0 D
#15
b10 _
b10 u
b10 $"
b10 F"
b10 Y"
b1 G
b1 g
15
#20
05
b10 9
b11 1
b11 @
b11 j
b11 &"
b111 0
b111 ?
b111 i
b111 |
b100 ,
b100 ;
b100 E"
b100 X"
b10 +
b10 :
b10 h
b10 {
#25
b10 G
b10 g
b111 _
b111 u
b111 $"
b111 F"
b111 Y"
b10 y
b10 #"
b10 %"
b1110 ""
b11 Z
b11 t
b11 ,"
b11 G"
b11 a"
b10 ^
b10 R"
b10 _"
b10 ##
b10 6#
b100 V"
b100 ^"
b100 `"
b1000 ]"
15
#30
05
b11 9
b101 1
b101 @
b101 j
b101 &"
b100 0
b100 ?
b100 i
b100 |
b1 -
b1 <
b1 "#
b1 5#
b11 ,
b11 ;
b11 E"
b11 X"
b11 +
b11 :
b11 h
b11 {
#35
b10 ]
b10 /#
b10 <#
b10 ^#
b10 q#
b1 3#
b1 ;#
b1 =#
b10 :#
b11 Y
b11 Q"
b11 g"
b11 $#
b11 >#
b100 U"
b100 f"
b100 h"
b1100 e"
b111 ^
b111 R"
b111 _"
b111 ##
b111 6#
b11 V"
b11 ^"
b11 `"
b11101 ]"
b101 Z
b101 t
b101 ,"
b101 G"
b101 a"
b10 x
b10 +"
b10 -"
b1010 *"
b100 _
b100 u
b100 $"
b100 F"
b100 Y"
b11 y
b11 #"
b11 %"
b11010 ""
b11 G
b11 g
15
#40
05
b100 9
b1 3
b1 B
b1 l
b1 6"
b110 2
b110 A
b110 k
b110 ."
b110 1
b110 @
b110 j
b110 &"
b11 0
b11 ?
b11 i
b11 |
b1000 .
b1000 =
b1000 ]#
b1000 p#
b0 ,
b0 ;
b0 E"
b0 X"
b100 +
b100 :
b100 h
b100 {
#45
b100 G
b100 g
b11 _
b11 u
b11 $"
b11 F"
b11 Y"
b100 y
b100 #"
b100 %"
b100110 ""
b110 Z
b110 t
b110 ,"
b110 G"
b110 a"
b11 x
b11 +"
b11 -"
b11100 *"
b110 U
b110 s
b110 4"
b110 H"
b110 i"
b10 w
b10 3"
b10 5"
b1100 2"
b1 P
b1 r
b1 <"
b1 I"
b1 q"
b100 ^
b100 R"
b100 _"
b100 ##
b100 6#
b0 V"
b0 ^"
b0 `"
b101 Y
b101 Q"
b101 g"
b101 $#
b101 >#
b11 U"
b11 f"
b11 h"
b11011 e"
b100 T"
b100 n"
b100 p"
b111 ]
b111 /#
b111 <#
b111 ^#
b111 q#
b1001 :#
b11 X
b11 .#
b11 D#
b11 _#
b11 y#
b1 2#
b1 C#
b1 E#
b11 B#
b10 \
b10 j#
b10 w#
b10 ;$
b10 N$
b1000 n#
b1000 v#
b1000 x#
b10000 u#
15
#50
05
b101 9
b100 4
b100 C
b100 m
b100 >"
b1 1
b1 @
b1 j
b1 &"
b0 0
b0 ?
b0 i
b0 |
b100 /
b100 >
b100 :$
b100 M$
b11 .
b11 =
b11 ]#
b11 p#
b1001 -
b1001 <
b1001 "#
b1001 5#
b1 ,
b1 ;
b1 E"
b1 X"
b1000 +
b1000 :
b1000 h
b1000 {
#55
b10 %
b10 `
b10 G$
b10 T$
b100 K$
b100 S$
b100 U$
b1000 R$
b11 W
b11 i#
b11 !$
b11 <$
b11 V$
b1000 m#
b1000 ~#
b1000 "$
b11000 }#
b111 \
b111 j#
b111 w#
b111 ;$
b111 N$
b11 n#
b11 v#
b11 x#
b100101 u#
b1 1#
b1 K#
b1 M#
b101 X
b101 .#
b101 D#
b101 _#
b101 y#
b1000 B#
b100 ]
b100 /#
b100 <#
b100 ^#
b100 q#
b1001 3#
b1001 ;#
b1001 =#
b101101 :#
b1 O
b1 O"
b1 w"
b1 &#
b1 N#
b100 S"
b100 v"
b100 x"
b100 u"
b110 T
b110 P"
b110 o"
b110 %#
b110 F#
b11 T"
b11 n"
b11 p"
b10010 m"
b110 Y
b110 Q"
b110 g"
b110 $#
b110 >#
b0 U"
b0 f"
b0 h"
b11 ^
b11 R"
b11 _"
b11 ##
b11 6#
b1 V"
b1 ^"
b1 `"
b100000 ]"
b100 K
b100 q
b100 D"
b100 J"
b100 y"
b10 v
b10 ;"
b10 ="
b10 :"
b11 w
b11 3"
b11 5"
b11110 2"
b1 Z
b1 t
b1 ,"
b1 G"
b1 a"
b100 x
b100 +"
b100 -"
b100000 *"
b0 _
b0 u
b0 $"
b0 F"
b0 Y"
b1000 y
b1000 #"
b1000 %"
b101 G
b101 g
15
#60
05
b110 9
b10 4
b10 C
b10 m
b10 >"
b0 2
b0 A
b0 k
b0 ."
b111 1
b111 @
b111 j
b111 &"
b1000 /
b1000 >
b1000 :$
b1000 M$
b111 .
b111 =
b111 ]#
b111 p#
b110 -
b110 <
b110 "#
b110 5#
b111 ,
b111 ;
b111 E"
b111 X"
b0 +
b0 :
b0 h
b0 {
#65
b110 G
b110 g
b0 y
b0 #"
b0 %"
b111 Z
b111 t
b111 ,"
b111 G"
b111 a"
b1000 x
b1000 +"
b1000 -"
b1011000 *"
b0 U
b0 s
b0 4"
b0 H"
b0 i"
b100 w
b100 3"
b100 5"
b11 v
b11 ;"
b11 ="
b101 :"
b10 K
b10 q
b10 D"
b10 J"
b10 y"
b10 *
b10 e
b10 z
b10 C"
b100 B"
b0 ^
b0 R"
b0 _"
b0 ##
b0 6#
b111 V"
b111 ^"
b111 `"
b1 Y
b1 Q"
b1 g"
b1 $#
b1 >#
b1 U"
b1 f"
b1 h"
b11100 e"
b0 T"
b0 n"
b0 p"
b11 S"
b11 v"
b11 x"
b111 u"
b100 J
b100 N"
b100 !#
b100 '#
b100 V#
b100 )
b100 d
b100 W"
b100 ~"
b10000 }"
b11 ]
b11 /#
b11 <#
b11 ^#
b11 q#
b110 3#
b110 ;#
b110 =#
b111111 :#
b110 X
b110 .#
b110 D#
b110 _#
b110 y#
b1001 2#
b1001 C#
b1001 E#
b111110 B#
b110 S
b110 -#
b110 L#
b110 `#
b110 #$
b110 J#
b1 N
b1 ,#
b1 T#
b1 a#
b1 +$
b1 0#
b1 S#
b1 U#
b1 R#
b100 \
b100 j#
b100 w#
b100 ;$
b100 N$
b111 n#
b111 v#
b111 x#
b1000001 u#
b101 W
b101 i#
b101 !$
b101 <$
b101 V$
b11 m#
b11 ~#
b11 "$
b100111 }#
b1000 l#
b1000 ($
b1000 *$
b111 %
b111 `
b111 G$
b111 T$
b1000 K$
b1000 S$
b1000 U$
b1000000 R$
b11 $
b11 [
b11 F$
b11 \$
b100 J$
b100 [$
b100 ]$
b1100 Z$
15
#70
05
b111 9
b111 4
b111 C
b111 m
b111 >"
b10 3
b10 B
b10 l
b10 6"
b111 2
b111 A
b111 k
b111 ."
b0 1
b0 @
b0 j
b0 &"
b101 /
b101 >
b101 :$
b101 M$
b110 .
b110 =
b110 ]#
b110 p#
b0 -
b0 <
b0 "#
b0 5#
b0 ,
b0 ;
b0 E"
b0 X"
